RISCV/tb.vcd
$date
	Sat Mar 15 12:49:49 2025
$end
$version
	Icarus Verilog
$end
$timescale
	1ps
$end
$scope module tb $end
$var wire 32 ! X0 [31:0] $end
$var wire 32 " a0 [31:0] $end
$var wire 32 # a1 [31:0] $end
$var wire 32 $ a2 [31:0] $end
$var wire 32 % a3 [31:0] $end
$var wire 32 & a4 [31:0] $end
$var wire 32 ' a5 [31:0] $end
$var wire 32 ( a6 [31:0] $end
$var wire 32 ) a7 [31:0] $end
$var wire 32 * gp [31:0] $end
$var wire 32 + ra [31:0] $end
$var wire 32 , s0 [31:0] $end
$var wire 32 - s1 [31:0] $end
$var wire 32 . s10 [31:0] $end
$var wire 32 / s11 [31:0] $end
$var wire 32 0 s2 [31:0] $end
$var wire 32 1 s3 [31:0] $end
$var wire 32 2 s4 [31:0] $end
$var wire 32 3 s5 [31:0] $end
$var wire 32 4 s6 [31:0] $end
$var wire 32 5 s7 [31:0] $end
$var wire 32 6 s8 [31:0] $end
$var wire 32 7 s9 [31:0] $end
$var wire 32 8 sp [31:0] $end
$var wire 32 9 t0 [31:0] $end
$var wire 32 : t1 [31:0] $end
$var wire 32 ; t2 [31:0] $end
$var wire 32 < t3 [31:0] $end
$var wire 32 = t4 [31:0] $end
$var wire 32 > t5 [31:0] $end
$var wire 32 ? t6 [31:0] $end
$var wire 32 @ tp [31:0] $end
$var wire 32 A min [31:0] $end
$var wire 32 B max [31:0] $end
$var reg 1 C clk $end
$var reg 1 D reset $end
$scope module riscv_DUT $end
$var wire 1 C clk $end
$var wire 1 D reset $end
$var wire 1 E Zero $end
$var wire 32 F WriteData [31:0] $end
$var wire 32 G SrcB [31:0] $end
$var wire 32 H SrcA [31:0] $end
$var wire 2 I ResultSrc [1:0] $end
$var wire 32 J Result [31:0] $end
$var wire 1 K RegWrite $end
$var wire 32 L ReadData [31:0] $end
$var wire 32 M PCTarget [31:0] $end
$var wire 1 N PCSrc $end
$var wire 32 O PCPlus4 [31:0] $end
$var wire 32 P PCNext [31:0] $end
$var wire 32 Q PC [31:0] $end
$var wire 1 R MemWrite $end
$var wire 32 S Inst [31:0] $end
$var wire 2 T ImmSrc [1:0] $end
$var wire 32 U ImmExt [31:0] $end
$var wire 1 V ALUSrc $end
$var wire 32 W ALUResult [31:0] $end
$var wire 4 X ALUCtl [3:0] $end
$var parameter 32 Y WIDHT $end
$scope module ALU $end
$var wire 32 Z ALUResult [31:0] $end
$var wire 1 E Zero $end
$var wire 32 [ SrcB [31:0] $end
$var wire 32 \ SrcA [31:0] $end
$var wire 4 ] ALUCtl [3:0] $end
$var parameter 32 ^ ADD $end
$var parameter 32 _ AND $end
$var parameter 32 ` BGE $end
$var parameter 32 a BGEU $end
$var parameter 32 b BLT $end
$var parameter 32 c BLTU $end
$var parameter 32 d BNE $end
$var parameter 32 e OR $end
$var parameter 32 f SLL $end
$var parameter 32 g SLT $end
$var parameter 32 h SLTU $end
$var parameter 32 i SRA $end
$var parameter 32 j SRL $end
$var parameter 32 k SUB $end
$var parameter 32 l WIDTH $end
$var parameter 32 m XOR $end
$var reg 32 n temp [31:0] $end
$upscope $end
$scope module AdderPC $end
$var wire 32 o SrcB [31:0] $end
$var wire 32 p SrcA [31:0] $end
$var wire 32 q Result [31:0] $end
$var parameter 32 r WIDTH $end
$upscope $end
$scope module AdderPCTarget $end
$var wire 32 s SrcB [31:0] $end
$var wire 32 t SrcA [31:0] $end
$var wire 32 u Result [31:0] $end
$var parameter 32 v WIDTH $end
$upscope $end
$scope module ControlUnit $end
$var wire 1 w AndOut $end
$var wire 1 N PCSrc $end
$var wire 1 E Zero $end
$var wire 3 x func3 [2:0] $end
$var wire 1 y func7_5 $end
$var wire 7 z opcode [6:0] $end
$var wire 2 { ResultSrc [1:0] $end
$var wire 1 K RegWrite $end
$var wire 1 R MemWrite $end
$var wire 1 | Jump $end
$var wire 2 } ImmSrc [1:0] $end
$var wire 1 ~ Branch $end
$var wire 1 V ALUSrc $end
$var wire 2 !" ALUOp [1:0] $end
$var wire 4 "" ALUCtl [3:0] $end
$scope module ALUDecoder $end
$var wire 4 #" ALUCtl [3:0] $end
$var wire 3 $" func3 [2:0] $end
$var wire 1 y func7_5 $end
$var wire 1 %" opcode_5 $end
$var wire 2 &" ALUOp [1:0] $end
$var parameter 32 '" ADD $end
$var parameter 32 (" AND $end
$var parameter 32 )" BGE $end
$var parameter 32 *" BGEU $end
$var parameter 32 +" BLT $end
$var parameter 32 ," BLTU $end
$var parameter 32 -" BNE $end
$var parameter 32 ." Branch_Type $end
$var parameter 32 /" IR_Type $end
$var parameter 32 0" Load_Store_Type $end
$var parameter 32 1" OR $end
$var parameter 32 2" SLL $end
$var parameter 32 3" SLT $end
$var parameter 32 4" SLTU $end
$var parameter 32 5" SRA $end
$var parameter 32 6" SRL $end
$var parameter 32 7" SUB $end
$var parameter 32 8" XOR $end
$var reg 4 9" temp [3:0] $end
$upscope $end
$scope module MainDecoder $end
$var wire 7 :" opcode [6:0] $end
$var parameter 32 ;" B_Type $end
$var parameter 32 <" BranchInst $end
$var parameter 32 =" Branch_Type $end
$var parameter 32 >" IR_Type $end
$var parameter 32 ?" I_Type $end
$var parameter 32 @" I_TypeInst $end
$var parameter 32 A" J_Type $end
$var parameter 32 B" J_TypeInst $end
$var parameter 32 C" LoadInst $end
$var parameter 32 D" Load_Store_Type $end
$var parameter 32 E" R_TypeInst $end
$var parameter 32 F" S_Type $end
$var parameter 32 G" StoreInst $end
$var reg 2 H" ALUOp [1:0] $end
$var reg 1 V ALUSrc $end
$var reg 1 ~ Branch $end
$var reg 2 I" ImmSrc [1:0] $end
$var reg 1 | Jump $end
$var reg 1 R MemWrite $end
$var reg 1 K RegWrite $end
$var reg 2 J" ResultSrc [1:0] $end
$upscope $end
$upscope $end
$scope module DataMemory $end
$var wire 32 K" A [31:0] $end
$var wire 1 C CLK $end
$var wire 1 R WE $end
$var wire 32 L" WD [31:0] $end
$var wire 32 M" RD [31:0] $end
$var parameter 32 N" Width $end
$upscope $end
$scope module ImmExtnd $end
$var wire 2 O" InstType [1:0] $end
$var wire 25 P" Instr [31:7] $end
$var parameter 32 Q" B_Type $end
$var parameter 32 R" I_Type $end
$var parameter 32 S" J_Type $end
$var parameter 32 T" S_Type $end
$var reg 32 U" ImmExt [31:0] $end
$upscope $end
$scope module InstructionMemory $end
$var wire 32 V" readAddr [31:0] $end
$var wire 32 W" inst [31:0] $end
$upscope $end
$scope module MuxALU $end
$var wire 32 X" B [31:0] $end
$var wire 1 V S $end
$var wire 32 Y" Y [31:0] $end
$var wire 32 Z" A [31:0] $end
$var parameter 32 [" WIDTH $end
$upscope $end
$scope module MuxPC $end
$var wire 32 \" A [31:0] $end
$var wire 32 ]" B [31:0] $end
$var wire 1 N S $end
$var wire 32 ^" Y [31:0] $end
$var parameter 32 _" WIDTH $end
$upscope $end
$scope module MuxWriteData $end
$var wire 32 `" A [31:0] $end
$var wire 32 a" B [31:0] $end
$var wire 32 b" C [31:0] $end
$var wire 2 c" S [1:0] $end
$var wire 32 d" Y [31:0] $end
$var parameter 32 e" WIDTH $end
$var reg 32 f" temp [31:0] $end
$upscope $end
$scope module ProgramCounter $end
$var wire 1 C clk $end
$var wire 32 g" pc_in [31:0] $end
$var wire 1 D reset $end
$var wire 32 h" pc_out [31:0] $end
$var parameter 32 i" WIDTH $end
$var reg 32 j" temp [31:0] $end
$upscope $end
$scope module RegisterFile $end
$var wire 5 k" A1 [4:0] $end
$var wire 5 l" A2 [4:0] $end
$var wire 5 m" A3 [4:0] $end
$var wire 1 C CLK $end
$var wire 32 n" WD3 [31:0] $end
$var wire 1 K WE3 $end
$var wire 1 D reset $end
$var wire 32 o" RD2 [31:0] $end
$var wire 32 p" RD1 [31:0] $end
$var parameter 32 q" ADDR_WIDTH $end
$var parameter 32 r" DATA_WIDTH $end
$var integer 32 s" i [31:0] $end
$upscope $end
$upscope $end
$upscope $end
$enddefinitions $end
$comment Show the parameter values. $end
$dumpall
b100000 r"
b101 q"
b100000 i"
b100000 e"
b100000 _"
b100000 ["
b1 T"
b11 S"
b0 R"
b10 Q"
b100000 N"
b100011 G"
b1 F"
b110011 E"
b0 D"
b11 C"
b1101111 B"
b11 A"
b10011 @"
b0 ?"
b10 >"
b1 ="
b1100011 <"
b10 ;"
b101 8"
b1 7"
b110 6"
b111 5"
b100 4"
b11 3"
b10 2"
b1000 1"
b0 0"
b10 /"
b1 ."
b1010 -"
b1101 ,"
b1011 +"
b1110 *"
b1100 )"
b1001 ("
b0 '"
b100000 v
b100000 r
b101 m
b100000 l
b1 k
b110 j
b111 i
b100 h
b11 g
b10 f
b1000 e
b1010 d
b1101 c
b1011 b
b1110 a
b1100 `
b1001 _
b0 ^
b100000 Y
$end
#0
$dumpvars
bx s"
bx p"
bx o"
bx n"
bx m"
bx l"
bx k"
bx j"
bx h"
bx g"
bx f"
bx d"
bx c"
bx b"
bx a"
bx `"
bx ^"
bx ]"
bx \"
bx Z"
bx Y"
bx X"
bx W"
bx V"
bx U"
bx P"
bx O"
bx M"
bx L"
bx K"
bx J"
bx I"
bx H"
bx :"
bx 9"
bx &"
x%"
bx $"
bx #"
bx ""
bx !"
x~
bx }
x|
bx {
bx z
xy
bx x
xw
bx u
bx t
bx s
bx q
bx p
b100 o
bx n
bx ]
bx \
bx [
bx Z
bx X
bx W
xV
bx U
bx T
bx S
xR
bx Q
bx P
bx O
xN
bx M
bx L
xK
bx J
bx I
bx H
bx G
bx F
xE
1D
0C
bx B
bx A
bx @
bx ?
bx >
bx =
bx <
bx ;
bx :
bx 9
bx 8
bx 7
bx 6
bx 5
bx 4
bx 3
bx 2
bx 1
bx 0
bx /
bx .
bx -
bx ,
bx +
bx *
bx )
bx (
bx '
bx &
bx %
bx $
bx #
bx "
bx !
$end
#1000
b0 F
b0 L"
b0 Z"
b0 o"
b0 ?
b0 >
b0 =
b0 <
b0 /
b0 .
b0 7
b0 6
b0 5
b0 4
b0 3
b0 2
b0 1
b0 0
b0 )
b0 (
b0 '
b0 &
b0 %
b0 $
b0 #
b0 "
b0 -
b0 ,
b0 ;
b0 :
b0 9
b0 @
b0 *
b0 8
b0 +
b0 !
b100 P
b100 ^"
b100 g"
0E
b1010 W
b1010 Z
b1010 K"
b1010 `"
b1010 n
b1010 G
b1010 [
b1010 Y"
0N
0w
b1010 M
b1010 u
b1010 ]"
b1010 U
b1010 s
b1010 U"
b1010 X"
b0 H
b0 \
b0 p"
b0 X
b0 ]
b0 ""
b0 #"
b0 9"
0%"
1K
1V
0R
0|
0~
b10 !"
b10 &"
b10 H"
b0 T
b0 }
b0 I"
b0 O"
b0 I
b0 {
b0 J"
b0 c"
b10100000000000101 P"
b101 m"
b1010 l"
b0 k"
0y
b0 x
b0 $"
b10011 z
b10011 :"
b101000000000001010010011 S
b101000000000001010010011 W"
b1010 J
b1010 d"
b1010 n"
b1010 f"
b100 O
b100 q
b100 \"
b100 b"
b0 Q
b0 p
b0 t
b0 V"
b0 h"
b0 j"
b100000 s"
1C
#2000
0C
#3000
b100000 s"
1C
#4000
0C
#5000
b1010 9
b10100 J
b10100 d"
b10100 n"
b10100 f"
b10100 W
b10100 Z
b10100 K"
b10100 `"
b10100 n
b10100 G
b10100 [
b10100 Y"
b10100 U
b10100 s
b10100 U"
b10100 X"
b101000000000000110 P"
b110 m"
b10100 l"
b1010000000000001100010011 S
b1010000000000001100010011 W"
b1000 P
b1000 ^"
b1000 g"
b11000 M
b11000 u
b11000 ]"
b1000 O
b1000 q
b1000 \"
b1000 b"
b100 Q
b100 p
b100 t
b100 V"
b100 h"
b100 j"
1C
0D
#6000
0C
#7000
b10100 :
b0 L
b0 M"
b0 a"
b11111111111111111111111111111011 J
b11111111111111111111111111111011 d"
b11111111111111111111111111111011 n"
b11111111111111111111111111111011 f"
b11111111111111111111111111111011 W
b11111111111111111111111111111011 Z
b11111111111111111111111111111011 K"
b11111111111111111111111111111011 `"
b11111111111111111111111111111011 n
b11111111111111111111111111111011 G
b11111111111111111111111111111011 [
b11111111111111111111111111111011 Y"
b11111111111111111111111111111011 U
b11111111111111111111111111111011 s
b11111111111111111111111111111011 U"
b11111111111111111111111111111011 X"
b1111111110110000000000111 P"
b111 m"
b11011 l"
1y
b11111111101100000000001110010011 S
b11111111101100000000001110010011 W"
b1100 P
b1100 ^"
b1100 g"
b11 M
b11 u
b11 ]"
b1100 O
b1100 q
b1100 \"
b1100 b"
b1000 Q
b1000 p
b1000 t
b1000 V"
b1000 h"
b1000 j"
1C
#8000
0C
#9000
b11111111111111111111111111111011 ;
bx L
bx M"
bx a"
b1111 J
b1111 d"
b1111 n"
b1111 f"
b1111 W
b1111 Z
b1111 K"
b1111 `"
b1111 n
b1111 G
b1111 [
b1111 Y"
b1111 U
b1111 s
b1111 U"
b1111 X"
b11110000000001000 P"
b1000 m"
b1111 l"
0y
b111100000000010000010011 S
b111100000000010000010011 W"
b10000 P
b10000 ^"
b10000 g"
b11011 M
b11011 u
b11011 ]"
b10000 O
b10000 q
b10000 \"
b10000 b"
b1100 Q
b1100 p
b1100 t
b1100 V"
b1100 h"
b1100 j"
1C
#10000
0C
#11000
b1111 ,
b0 J
b0 d"
b0 n"
b0 f"
1E
b0 W
b0 Z
b0 K"
b0 `"
b0 n
b0 G
b0 [
b0 Y"
b0 U
b0 s
b0 U"
b0 X"
b1001 P"
b1001 m"
b0 l"
b10010010011 S
b10010010011 W"
b10100 P
b10100 ^"
b10100 g"
b10000 M
b10000 u
b10000 ]"
b10100 O
b10100 q
b10100 \"
b10100 b"
b10000 Q
b10000 p
b10000 t
b10000 V"
b10000 h"
b10000 j"
1C
#12000
0C
#13000
b11110 J
b11110 d"
b11110 n"
b11110 f"
0E
b11110 W
b11110 Z
b11110 K"
b11110 `"
b11110 n
b10100 G
b10100 [
b10100 Y"
b110 U
b110 s
b110 U"
b110 X"
b10100 F
b10100 L"
b10100 Z"
b10100 o"
b1010 H
b1010 \
b1010 p"
1%"
0V
b1100010100001010 P"
b1010 m"
b110 l"
b101 k"
b110011 z
b110011 :"
b11000101000010100110011 S
b11000101000010100110011 W"
b11000 P
b11000 ^"
b11000 g"
b11010 M
b11010 u
b11010 ]"
b11000 O
b11000 q
b11000 \"
b11000 b"
b10100 Q
b10100 p
b10100 t
b10100 V"
b10100 h"
b10100 j"
1C
#14000
0C
#15000
b11110 "
b1010 J
b1010 d"
b1010 n"
b1010 f"
b1010 G
b1010 [
b1010 Y"
0E
b1010 W
b1010 Z
b1010 K"
b1010 `"
b1010 n
b10000000101 U
b10000000101 s
b10000000101 U"
b10000000101 X"
b1010 F
b1010 L"
b1010 Z"
b1010 o"
b10100 H
b10100 \
b10100 p"
b1 X
b1 ]
b1 ""
b1 #"
b1 9"
b100000001010011000001011 P"
b1011 m"
b101 l"
b110 k"
1y
b1000000010100110000010110110011 S
b1000000010100110000010110110011 W"
b11100 P
b11100 ^"
b11100 g"
b10000011101 M
b10000011101 u
b10000011101 ]"
b11100 O
b11100 q
b11100 \"
b11100 b"
b11000 Q
b11000 p
b11000 t
b11000 V"
b11000 h"
b11000 j"
1C
#16000
0C
#17000
b1010 #
b1111 G
b1111 [
b1111 Y"
b1000 U
b1000 s
b1000 U"
b1000 X"
b1111 F
b1111 L"
b1111 Z"
b1111 o"
b1010 H
b1010 \
b1010 p"
b1001 X
b1001 ]
b1001 ""
b1001 #"
b1001 9"
b10000010111101100 P"
b1100 m"
b1000 l"
b101 k"
0y
b111 x
b111 $"
b100000101111011000110011 S
b100000101111011000110011 W"
b100000 P
b100000 ^"
b100000 g"
b100100 M
b100100 u
b100100 ]"
b100000 O
b100000 q
b100000 \"
b100000 b"
b11100 Q
b11100 p
b11100 t
b11100 V"
b11100 h"
b11100 j"
1C
#18000
0C
#19000
b1010 $
b1111 J
b1111 d"
b1111 n"
b1111 f"
b1111 W
b1111 Z
b1111 K"
b1111 `"
b1111 n
b1000 X
b1000 ]
b1000 ""
b1000 #"
b1000 9"
b10000010111001101 P"
b1101 m"
b110 x
b110 $"
b100000101110011010110011 S
b100000101110011010110011 W"
b100100 P
b100100 ^"
b100100 g"
b101000 M
b101000 u
b101000 ]"
b100100 O
b100100 q
b100100 \"
b100100 b"
b100000 Q
b100000 p
b100000 t
b100000 V"
b100000 h"
b100000 j"
1C
#20000
0C
#21000
b1111 %
b101 J
b101 d"
b101 n"
b101 f"
b101 W
b101 Z
b101 K"
b101 `"
b101 n
b101 X
b101 ]
b101 ""
b101 #"
b101 9"
b10000010110001110 P"
b1110 m"
b100 x
b100 $"
b100000101100011100110011 S
b100000101100011100110011 W"
b101000 P
b101000 ^"
b101000 g"
b101100 M
b101100 u
b101100 ]"
b101000 O
b101000 q
b101000 \"
b101000 b"
b100100 Q
b100100 p
b100100 t
b100100 V"
b100100 h"
b100100 j"
1C
#22000
0C
#23000
b101 &
bx L
bx M"
bx a"
b1010 J
b1010 d"
b1010 n"
b1010 f"
b0 G
b0 [
b0 Y"
b1010 W
b1010 Z
b1010 K"
b1010 `"
b1010 n
b1001 U
b1001 s
b1001 U"
b1001 X"
b0 F
b0 L"
b0 Z"
b0 o"
b10 X
b10 ]
b10 ""
b10 #"
b10 9"
b10010010100101111 P"
b1111 m"
b1001 l"
b1 x
b1 $"
b100100101001011110110011 S
b100100101001011110110011 W"
b101100 P
b101100 ^"
b101100 g"
b110001 M
b110001 u
b110001 ]"
b101100 O
b101100 q
b101100 \"
b101100 b"
b101000 Q
b101000 p
b101000 t
b101000 V"
b101000 h"
b101000 j"
1C
#24000
0C
#25000
b1010 '
b1111 J
b1111 d"
b1111 n"
b1111 f"
b1111 W
b1111 Z
b1111 K"
b1111 `"
b1111 n
b1111 H
b1111 \
b1111 p"
b110 X
b110 ]
b110 ""
b110 #"
b110 9"
b10010100010110000 P"
b10000 m"
b1000 k"
b101 x
b101 $"
b100101000101100000110011 S
b100101000101100000110011 W"
b110000 P
b110000 ^"
b110000 g"
b110101 M
b110101 u
b110101 ]"
b110000 O
b110000 q
b110000 \"
b110000 b"
b101100 Q
b101100 p
b101100 t
b101100 V"
b101100 h"
b101100 j"
1C
#26000
0C
#27000
b1111 (
b0 L
b0 M"
b0 a"
b11111111111111111111111111111011 J
b11111111111111111111111111111011 d"
b11111111111111111111111111111011 n"
b11111111111111111111111111111011 f"
b11111111111111111111111111111011 W
b11111111111111111111111111111011 Z
b11111111111111111111111111111011 K"
b11111111111111111111111111111011 `"
b11111111111111111111111111111011 n
b11111111111111111111111111111011 H
b11111111111111111111111111111011 \
b11111111111111111111111111111011 p"
b111 X
b111 ]
b111 ""
b111 #"
b111 9"
b100000010010011110110001 P"
b10001 m"
b111 k"
1y
b1000000100100111101100010110011 S
b1000000100100111101100010110011 W"
b110100 P
b110100 ^"
b110100 g"
b111001 M
b111001 u
b111001 ]"
b110100 O
b110100 q
b110100 \"
b110100 b"
b110000 Q
b110000 p
b110000 t
b110000 V"
b110000 h"
b110000 j"
1C
#28000
0C
#29000
b11111111111111111111111111111011 )
bx L
bx M"
bx a"
b101000 J
b101000 d"
b101000 n"
b101000 f"
b101000 W
b101000 Z
b101000 K"
b101000 `"
b101000 n
b10 G
b10 [
b10 Y"
b10 U
b10 s
b10 U"
b10 X"
b1010 H
b1010 \
b1010 p"
b10 X
b10 ]
b10 ""
b10 #"
b10 9"
0%"
1V
b100010100110010 P"
b10010 m"
b10 l"
b101 k"
0y
b1 x
b1 $"
b10011 z
b10011 :"
b1000101001100100010011 S
b1000101001100100010011 W"
b111000 P
b111000 ^"
b111000 g"
b110110 M
b110110 u
b110110 ]"
b111000 O
b111000 q
b111000 \"
b111000 b"
b110100 Q
b110100 p
b110100 t
b110100 V"
b110100 h"
b110100 j"
1C
#30000
0C
#31000
b101000 0
b111 J
b111 d"
b111 n"
b111 f"
b1 G
b1 [
b1 Y"
b111 W
b111 Z
b111 K"
b111 `"
b111 n
b1 U
b1 s
b1 U"
b1 X"
b1111 H
b1111 \
b1111 p"
b110 X
b110 ]
b110 ""
b110 #"
b110 9"
b10100010110011 P"
b10011 m"
b1 l"
b1000 k"
b101 x
b101 $"
b101000101100110010011 S
b101000101100110010011 W"
b111100 P
b111100 ^"
b111100 g"
b111001 M
b111001 u
b111001 ]"
b111100 O
b111100 q
b111100 \"
b111100 b"
b111000 Q
b111000 p
b111000 t
b111000 V"
b111000 h"
b111000 j"
1C
#32000
0C
#33000
b111 1
b0 L
b0 M"
b0 a"
b11111111111111111111111111111101 J
b11111111111111111111111111111101 d"
b11111111111111111111111111111101 n"
b11111111111111111111111111111101 f"
b11111111111111111111111111111101 W
b11111111111111111111111111111101 Z
b11111111111111111111111111111101 K"
b11111111111111111111111111111101 `"
b11111111111111111111111111111101 n
b11111111111111111111111111111011 H
b11111111111111111111111111111011 \
b11111111111111111111111111111011 p"
b111 X
b111 ]
b111 ""
b111 #"
b111 9"
b100000000010011110110100 P"
b10100 m"
b111 k"
1y
b1000000000100111101101000010011 S
b1000000000100111101101000010011 W"
b1000000 P
b1000000 ^"
b1000000 g"
b111101 M
b111101 u
b111101 ]"
b1000000 O
b1000000 q
b1000000 \"
b1000000 b"
b111100 Q
b111100 p
b111100 t
b111100 V"
b111100 h"
b111100 j"
1C
#34000
0C
#35000
b11111111111111111111111111111101 2
bx L
bx M"
bx a"
b1 J
b1 d"
b1 n"
b1 f"
b1 W
b1 Z
b1 K"
b1 `"
b1 n
b1010 G
b1010 [
b1010 Y"
b101 U
b101 s
b101 U"
b101 X"
b1010 F
b1010 L"
b1010 Z"
b1010 o"
b11 X
b11 ]
b11 ""
b11 #"
b11 9"
1%"
0V
b1010011101010101 P"
b10101 m"
b101 l"
0y
b10 x
b10 $"
b110011 z
b110011 :"
b10100111010101010110011 S
b10100111010101010110011 W"
b1000100 P
b1000100 ^"
b1000100 g"
b1000101 M
b1000101 u
b1000101 ]"
b1000100 O
b1000100 q
b1000100 \"
b1000100 b"
b1000000 Q
b1000000 p
b1000000 t
b1000000 V"
b1000000 h"
b1000000 j"
1C
#36000
0C
#37000
b1 3
b1 J
b1 d"
b1 n"
b1 f"
b10100 G
b10100 [
b10100 Y"
0E
b1 W
b1 Z
b1 K"
b1 `"
b1 n
b110 U
b110 s
b110 U"
b110 X"
b10100 F
b10100 L"
b10100 Z"
b10100 o"
b1010 H
b1010 \
b1010 p"
b100 X
b100 ]
b100 ""
b100 #"
b100 9"
b1100010101110110 P"
b10110 m"
b110 l"
b101 k"
b11 x
b11 $"
b11000101011101100110011 S
b11000101011101100110011 W"
b1001000 P
b1001000 ^"
b1001000 g"
b1001010 M
b1001010 u
b1001010 ]"
b1001000 O
b1001000 q
b1001000 \"
b1001000 b"
b1000100 Q
b1000100 p
b1000100 t
b1000100 V"
b1000100 h"
b1000100 j"
1C
#38000
0C
#39000
b1 4
b11111111111111111111111111111110 G
b11111111111111111111111111111110 [
b11111111111111111111111111111110 Y"
b11111111111111111111111111111110 U
b11111111111111111111111111111110 s
b11111111111111111111111111111110 U"
b11111111111111111111111111111110 X"
b0 F
b0 L"
b0 Z"
b0 o"
b11111111111111111111111111111011 H
b11111111111111111111111111111011 \
b11111111111111111111111111111011 p"
b11 X
b11 ]
b11 ""
b11 #"
b11 9"
0%"
1V
b1111111111100011101010111 P"
b10111 m"
b11110 l"
b111 k"
1y
b10 x
b10 $"
b10011 z
b10011 :"
b11111111111000111010101110010011 S
b11111111111000111010101110010011 W"
b1001100 P
b1001100 ^"
b1001100 g"
b1000110 M
b1000110 u
b1000110 ]"
b1001100 O
b1001100 q
b1001100 \"
b1001100 b"
b1001000 Q
b1001000 p
b1001000 t
b1001000 V"
b1001000 h"
b1001000 j"
1C
#40000
0C
#41000
b1 5
bx L
bx M"
bx a"
b1010 J
b1010 d"
b1010 n"
b1010 f"
b1010 G
b1010 [
b1010 Y"
b1010 W
b1010 Z
b1010 K"
b1010 `"
b1010 n
b1010 U
b1010 s
b1010 U"
b1010 X"
b11110 F
b11110 L"
b11110 Z"
b11110 o"
b0 H
b0 \
b0 p"
b0 X
b0 ]
b0 ""
b0 #"
b0 9"
b10100000000011000 P"
b11000 m"
b1010 l"
b0 k"
0y
b0 x
b0 $"
b101000000000110000010011 S
b101000000000110000010011 W"
b1010000 P
b1010000 ^"
b1010000 g"
b1010110 M
b1010110 u
b1010110 ]"
b1010000 O
b1010000 q
b1010000 \"
b1010000 b"
b1001100 Q
b1001100 p
b1001100 t
b1001100 V"
b1001100 h"
b1001100 j"
1C
#42000
0C
#43000
b1010 6
b1100100 J
b1100100 d"
b1100100 n"
b1100100 f"
b1100100 W
b1100100 Z
b1100100 K"
b1100100 `"
b1100100 n
b1100100 G
b1100100 [
b1100100 Y"
b1100100 U
b1100100 s
b1100100 U"
b1100100 X"
b0 F
b0 L"
b0 Z"
b0 o"
b11001000000000011001 P"
b11001 m"
b100 l"
b110010000000000110010010011 S
b110010000000000110010010011 W"
b1010100 P
b1010100 ^"
b1010100 g"
b10110100 M
b10110100 u
b10110100 ]"
b1010100 O
b1010100 q
b1010100 \"
b1010100 b"
b1010000 Q
b1010000 p
b1010000 t
b1010000 V"
b1010000 h"
b1010000 j"
1C
#44000
0C
#45000
b1100100 F
b1100100 L"
b1100100 Z"
b1100100 o"
b1100100 7
b1010 J
b1010 d"
b1010 n"
b1010 f"
b0 G
b0 [
b0 Y"
b1010 W
b1010 Z
b1010 K"
b1010 `"
b1010 n
b0 U
b0 s
b0 U"
b0 X"
b1010 H
b1010 \
b1010 p"
1%"
0K
1R
b0 !"
b0 &"
b0 H"
b1 T
b1 }
b1 I"
b1 O"
b110011100001000000 P"
b0 m"
b11001 l"
b11000 k"
b10 x
b10 $"
b100011 z
b100011 :"
b1100111000010000000100011 S
b1100111000010000000100011 W"
b1011000 P
b1011000 ^"
b1011000 g"
b1010100 M
b1010100 u
b1010100 ]"
b1011000 O
b1011000 q
b1011000 \"
b1011000 b"
b1010100 Q
b1010100 p
b1010100 t
b1010100 V"
b1010100 h"
b1010100 j"
1C
#46000
0C
#47000
b1100100 L
b1100100 M"
b1100100 a"
b1100100 J
b1100100 d"
b1100100 n"
b1100100 f"
b0 F
b0 L"
b0 Z"
b0 o"
0%"
1K
0R
b0 T
b0 }
b0 I"
b0 O"
b1 I
b1 {
b1 J"
b1 c"
b1100001011010 P"
b11010 m"
b0 l"
b11 z
b11 :"
b11000010110100000011 S
b11000010110100000011 W"
b1011100 P
b1011100 ^"
b1011100 g"
b1011000 M
b1011000 u
b1011000 ]"
b1011100 O
b1011100 q
b1011100 \"
b1011100 b"
b1011000 Q
b1011000 p
b1011000 t
b1011000 V"
b1011000 h"
b1011000 j"
1C
#48000
0C
#49000
b1100100 .
bx L
bx M"
bx a"
b101 G
b101 [
b101 Y"
0E
b101 W
b101 Z
b101 K"
b101 `"
b101 n
b101 J
b101 d"
b101 n"
b101 f"
b101 U
b101 s
b101 U"
b101 X"
b1010 F
b1010 L"
b1010 Z"
b1010 o"
b0 H
b0 \
b0 p"
b10 !"
b10 &"
b10 H"
b0 I
b0 {
b0 J"
b0 c"
b1010000000011011 P"
b11011 m"
b101 l"
b0 k"
b0 x
b0 $"
b10011 z
b10011 :"
b10100000000110110010011 S
b10100000000110110010011 W"
b1100000 P
b1100000 ^"
b1100000 g"
b1100001 M
b1100001 u
b1100001 ]"
b1100000 O
b1100000 q
b1100000 \"
b1100000 b"
b1011100 Q
b1011100 p
b1011100 t
b1011100 V"
b1011100 h"
b1011100 j"
1C
#50000
0C
#51000
b101 /
1N
1w
b0 J
b0 d"
b0 n"
b0 f"
1E
b0 W
b0 Z
b0 K"
b0 `"
b0 n
b1010 G
b1010 [
b1010 Y"
b1 X
b1 ]
b1 ""
b1 #"
b1 9"
b1000 U
b1000 s
b1000 U"
b1000 X"
b1010 H
b1010 \
b1010 p"
1%"
0K
0V
1~
b1 !"
b1 &"
b1 H"
b10 T
b10 }
b10 I"
b10 O"
b1010010100001000 P"
b1000 m"
b101 k"
b1100011 z
b1100011 :"
b10100101000010001100011 S
b10100101000010001100011 W"
b1101000 P
b1101000 ^"
b1101000 g"
b1101000 M
b1101000 u
b1101000 ]"
b1100100 O
b1100100 q
b1100100 \"
b1100100 b"
b1100000 Q
b1100000 p
b1100000 t
b1100000 V"
b1100000 h"
b1100000 j"
1C
#52000
0C
#53000
1N
1w
b0 J
b0 d"
b0 n"
b0 f"
b10100 G
b10100 [
b10100 Y"
1E
b0 W
b0 Z
b0 K"
b0 `"
b0 n
b10100 F
b10100 L"
b10100 Z"
b10100 o"
b1010 X
b1010 ]
b1010 ""
b1010 #"
b1010 9"
b1100010100101000 P"
b110 l"
b1 x
b1 $"
b11000101001010001100011 S
b11000101001010001100011 W"
b1110000 P
b1110000 ^"
b1110000 g"
b1110000 M
b1110000 u
b1110000 ]"
b1101100 O
b1101100 q
b1101100 \"
b1101100 b"
b1101000 Q
b1101000 p
b1101000 t
b1101000 V"
b1101000 h"
b1101000 j"
1C
#54000
0C
#55000
b1010 G
b1010 [
b1010 Y"
b1010 F
b1010 L"
b1010 Z"
b1010 o"
b11111111111111111111111111111011 H
b11111111111111111111111111111011 \
b11111111111111111111111111111011 p"
b1011 X
b1011 ]
b1011 ""
b1011 #"
b1011 9"
b1010011110001000 P"
b101 l"
b111 k"
b100 x
b100 $"
b10100111100010001100011 S
b10100111100010001100011 W"
b1111000 P
b1111000 ^"
b1111000 g"
b1111000 M
b1111000 u
b1111000 ]"
b1110100 O
b1110100 q
b1110100 \"
b1110100 b"
b1110000 Q
b1110000 p
b1110000 t
b1110000 V"
b1110000 h"
b1110000 j"
1C
#56000
0C
